; Engine configuration file.
; It's best edited using the editor UI and not directly,
; since the parameters that go here are not all obvious.
;
; Format:
;   [section] ; section goes between []
;   param=value ; assign values to parameters

config_version=4

_global_script_classes=[  ]
_global_script_class_icons={

}

[application]

config/name="Tactical Typing"
run/main_scene="res://title_screen/main_title.tscn"
boot_splash/image="res://icon.png"
boot_splash/bg_color=Color( 0, 0, 0, 1 )
config/icon="res://icon.png"

[autoload]

Global="*res://global.gd"
Save="*res://save.gd"

[display]

window/size/fullscreen=true
window/stretch/mode="viewport"

[rendering]

environment/default_clear_color=Color( 0, 0, 0, 1 )
environment/default_environment="res://default_env.tres"
